{
  "ua": "",
  "homeUrl": "http://6d.xuangz.cn",
  "dcVipFlag": "true",
  "pCfgJs": "http://6d.xuangz.cn/static/js/playerconfig.js",
  "pCfgJsR": "[\\W|\\S|.]*?MacPlayerConfig.player_list[\\W|\\S|.]*?=([\\W|\\S|.]*?),MacPlayerConfig.downer_list",
  "dcShow2Vip": {},
  "dcPlayUrl": "true",
  "cateNode": "//ul[contains(@class,'stui-header__menu')]/li/a[contains(@href,'list')]",
  "cateName": "/text()",
  "cateId": "/@href",
  "cateIdR": "/list/(\\S+).html",
  "cateManual": {
    "电影": "1",
    "电视剧": "2",
    "动漫": "3",
    "综艺": "4"
  
  },
  "homeVodNode": "//div[contains(@class, 'stui-vodlist__box')]/a[contains(@class,'stui-vodlist__thumb')]",
  "homeVodName": "/@title",
  "homeVodId": "/@href",
  "homeVodIdR": "/v_show/(\\w+).html",
  "homeVodImg": "/@data-original",
  "homeVodMark": "/span[contains(@class,'pic-text')]/text()",
  "cateUrl": "http://6d.xuangz.cn/list/{cateId}~{catePg}.html",


  "cateVodNode": "//div[contains(@class,'stui-vodlist__box')]/a[contains(@class,'stui-vodlist__thumb')]",
  "cateVodName": "/@title",
  "cateVodId": "/@href",
  "cateVodIdR": "/v_show/(\\w+).html",
  "cateVodImg": "/@data-original",
  "cateVodMark": "/span[contains(@class,'pic-text')]/text()",
  "dtUrl": "http://6d.xuangz.cn/v_show/{vid}.html",
  "dtNode": "//div[contains(@class,'col-md-wide-75')]",
  "dtName": "//div[contains(@class,'stui-content__thumb')]/a[contains(@class,'stui-vodlist__thumb')]/@title",
  "dtNameR": "",
  "dtImg": "//div[contains(@class,'stui-content__thumb')]/a[contains(@class,'stui-vodlist__thumb')]/@data-original",
  "dtImgR": "\\S+(http\\S+)",
  "dtCate": "//span[contains(@class,'text-muted') and contains(text(), '类型')]/following-sibling::a/text()",
  "dtCateR": "",
  "dtArea": "//span[contains(@class,'text-muted') and contains(text(), '地区')]/following-sibling::a/text()",
  "dtAreaR": "",
  "dtDirector": "//span[contains(@class,'text-muted') and contains(text(), '导演')]/following-sibling::a/text()",
  "dtDirectorR": "",
  "dtActor": "//span[contains(@class,'text-muted') and contains(text(), '主演')]/following-sibling::a/text()",
  "dtActorR": "",
  "dtYear": "//span[contains(@class,'text-muted') and contains(text(), '年代')]/following-sibling::a/text()",
  "dtYearR": "",
  "dtMark": "",
  "dtMarkR": "",
  "dtDesc": "//span[@class='detail-content']/text()",
  "dtDescR": "",
  "dtFromNode": "//a[@data-toggle='tab' and contains(@href,'play')]",
  "dtFromName": "/text()",
  "dtUrlNode": "//ul[contains(@class,'stui-content__playlist')]",
  "dtUrlSubNode": "/li/a",
  "dtUrlId": "@href",
  "dtUrlIdR": "/v_player/(\\S+).html",
  "dtUrlName": "/text()",
  "dtUrlNameR": "",
  "playUrl": "http://6d.xuangz.cn/v_player/{playUrl}.html",
  "playUa": "",
  "searchUrl": "http://6d.xuangz.cn/?c=search&wd={wd}",
  "scVodNode": "//a[@class='v-thumb stui-vodlist__thumb lazyload']",
  "scVodName": "@title",
  "scVodId": "@href",
  "scVodIdR": "/v_show/(\\w+).html",
  "scVodImg": "@data-original",
  "scVodMark": ""
}