{
	"ua": "Mozilla/5.0 (iPhone; CPU iPhone OS 13_2_3 like Mac OS X) AppleWebKit/605.1.15 (KHTML, like Gecko) Version/13.0.3 Mobile/15E148 Safari/604.1",
	"homeUrl": "https://www.ifimv.com",
	"dcVipFlag": "true",
	"pCfgJs": "https://www.ifimv.com/static/js/playerconfig.js",
	"pCfgJsR": "[\\W|\\S|.]*?MacPlayerConfig.player_list[\\W|\\S|.]*?=([\\W|\\S|.]*?),MacPlayerConfig.downer_list",
	"dcShow2Vip": {},
	"dcPlayUrl": "true",
	"cateManual": {
		"电影": "1",
		"国产剧": "13",
		"美剧": "14",
		"日韩剧": "15",
		"动漫": "3"
	},
    "cateUrl": "https://www.ifimv.com/vodshow/{cateId}--------{catePg}---.html",
	"cateVodNode": "//div[@class='module-item']",
	"cateVodName": "/div[@class='module-item-cover']/div[@class='module-item-pic']/a/@title",
	"cateVodId": "/div[@class='module-item-cover']/div[@class='module-item-pic']/a/@href",
	"cateVodIdR": "/video/(\\w+).html",
	"cateVodImg": "/div[@class='module-item-cover']/div[@class='module-item-pic']/img/@data-src",
	"cateVodImgR": "(http\\S+)",
	"cateVodMark": "/div[@class='module-item-text']/text()",
	"dtUrl": "https://www.ifimv.com/video/{vid}.html",
	"dtNode": "//body",
	"dtName": "",
	"dtNameR": "",
	"dtImg": "",
	"dtImgR": "",
	"dtCate": "//div[@class='tag-link']/a/text()",
	"dtCateR": "",
	"dtArea": "//a[@class='tag-link'][3]/text()",
	"dtAreaR": "",
	"dtYear": "//a[@class='tag-link'][2]/text()",
	"dtYearR": "",
	"dtActor": "//span[contains(text(),'主演')]/following-sibling::div/a/text()",
	"dtActorR": "",
	"dtDirector": "//span[contains(text(),'导演')]/following-sibling::div/a/text()",
	"dtDirectorR": "",
	"dtMark": "",
	"dtMarkR": "",
	"dtDesc": "//div[contains(@class,'video-info-content')]/span/text()",
	"dtDescR": "",
	"dtFromNode": "//div[@class='module-tab-content']/div/span",
	"dtFromName": "/text()",
	"dtFromNameR": "",
	"dtUrlNode": "//div[@class='scroll-content']",
	"dtUrlSubNode": "/a",
	"dtUrlId": "@href",
	"dtUrlIdR": "/play/(\\S+).html",
	"dtUrlName": "/span/text()",
	"dtUrlNameR": "",
	"playUrl": "https://www.ifimv.com/play/{playUrl}.html",
	"playUa": "",
	"searchUrl": "https://www.ifimv.com/index.php/ajax/suggest?mid=1&wd={wd}&limit=10",
	"scVodNode": "json:list",
	"scVodName": "name",
	"scVodId": "id",
	"scVodIdR": "",
	"scVodImg": "pic",
	"scVodMark": ""
}